<?xml version="1.0" encoding="utf-8"?>
<!-- Generator: Adobe Illustrator 21.0.0, SVG Export Plug-In . SVG Version: 6.00 Build 0)  -->
<svg version="1.1" id="Layer_1" xmlns="http://www.w3.org/2000/svg" xmlns:xlink="http://www.w3.org/1999/xlink" x="0px" y="0px"
	 viewBox="0 0 527 527" style="enable-background:new 0 0 527 527;" xml:space="preserve">
<style type="text/css">
	.st0{fill:#E6E9ED;}
	.st1{fill:#CCD1D9;}
	.st2{fill:#656D78;}
</style>
<path class="st0" d="M518,262c0,141.4-114.6,256-256,256C120.6,518,6,403.4,6,262S120.6,6,262,6C403.4,6,518,120.6,518,262z"/>
<path class="st1" d="M515.7,296.9c1.5-11.4,2.3-23.1,2.3-34.9c0-2,0-3.9-0.1-5.8c-1.9,4.6-6,10-11.8,15.3
	c-11.8,10.8-30.2,21.1-53.1,30c-24.4,9.4-53.1,16.8-85.1,22.1c-33.5,5.5-69.2,8.2-106,8.2c-36.8,0-72.4-2.8-105.9-8.2
	c-32-5.2-60.7-12.7-85.1-22.1c-22.9-8.8-41.2-19.2-53.1-30c-5.8-5.3-9.9-10.6-11.9-15.3C6,258.1,6,260,6,262
	c0,11.8,0.8,23.5,2.4,34.9c45,36.6,141.7,61.9,253.6,61.9S470.6,333.5,515.7,296.9z"/>
<path class="st2" d="M400.5,133.5c24.8,24.7,28.8,60.8,9,80.6s-55.9,15.8-80.6-9c-24.8-24.7-28.8-60.8-9-80.6
	C339.7,104.8,375.8,108.8,400.5,133.5z"/>
</svg>
